sections/1/quartus/simulation/qsim/mode.msim.vcd
$comment
	File created using the following command:
		vcd file mode.msim.vcd -direction
$end
$date
	Sat Jul 24 00:10:09 2021
$end
$version
	ModelSim Version 10.1d
$end
$timescale
	1ps
$end
$scope module mode_vlg_vec_tst $end
$var reg 4 ! firstdigit [3:0] $end
$var reg 4 " forthdigit [3:0] $end
$var reg 4 # seconddigit [3:0] $end
$var reg 4 $ thirddigit [3:0] $end
$var wire 1 % mode3 $end
$var wire 1 & mode11 $end
$var wire 1 ' sampler $end
$scope module i1 $end
$var wire 1 ( gnd $end
$var wire 1 ) vcc $end
$var wire 1 * unknown $end
$var tri1 1 + devclrn $end
$var tri1 1 , devpor $end
$var tri1 1 - devoe $end
$var wire 1 . inst|inst|inst1|inst1~0_combout $end
$var wire 1 / inst|inst10~4_combout $end
$var wire 1 0 inst|inst10~5_combout $end
$var wire 1 1 inst|inst|inst1|inst4~0_combout $end
$var wire 1 2 inst|inst|inst2|inst1~0_combout $end
$var wire 1 3 inst|inst1|inst1|inst4~0_combout $end
$var wire 1 4 inst|inst|inst3|inst1~combout $end
$var wire 1 5 inst|inst10~6_combout $end
$var wire 1 6 inst|inst10~7_combout $end
$var wire 1 7 inst|inst7|inst1|inst1~combout $end
$var wire 1 8 inst1|inst8~3_combout $end
$var wire 1 9 inst1|inst8~6_combout $end
$var wire 1 : inst|inst10~8_combout $end
$var wire 1 ; inst|inst7|inst|inst4~0_combout $end
$var wire 1 < inst|inst1|inst1|inst1~0_combout $end
$var wire 1 = inst|inst7|inst1|inst4~combout $end
$var wire 1 > inst|inst1|inst2|inst1~0_combout $end
$var wire 1 ? inst|inst7|inst2|inst1~combout $end
$var wire 1 @ inst|inst|inst2|inst4~0_combout $end
$var wire 1 A inst|inst|inst3|inst4~0_combout $end
$var wire 1 B inst|inst7|inst2|inst4~combout $end
$var wire 1 C inst|inst1|inst2|inst4~0_combout $end
$var wire 1 D inst|inst1|inst3|inst1~combout $end
$var wire 1 E inst|inst7|inst3|inst4~combout $end
$var wire 1 F inst|inst1|inst3|inst4~0_combout $end
$var wire 1 G inst|inst10~combout $end
$var wire 1 H inst|inst7|inst4|inst1~combout $end
$var wire 1 I inst|inst7|inst|inst~0_combout $end
$var wire 1 J inst|inst7|inst4|inst4~combout $end
$var wire 1 K inst|inst7|inst3|inst1~combout $end
$var wire 1 L inst|inst16~0_combout $end
$var wire 1 M inst|inst16~1_combout $end
$var wire 1 N inst1|inst8~1_combout $end
$var wire 1 O inst1|inst8~7_combout $end
$var wire 1 P inst1|inst8~5_combout $end
$var wire 1 Q inst1|inst8~4_combout $end
$var wire 1 R inst1|inst8~9_combout $end
$var wire 1 S inst1|inst8~8_combout $end
$var wire 1 T inst1|inst8~2_combout $end
$var wire 1 U inst1|inst8~11_combout $end
$var wire 1 V inst1|inst8~10_combout $end
$var wire 1 W inst1|inst8~0_combout $end
$var wire 1 X inst1|inst8~12_combout $end
$var wire 1 Y thirddigit~combout [3] $end
$var wire 1 Z thirddigit~combout [2] $end
$var wire 1 [ thirddigit~combout [1] $end
$var wire 1 \ thirddigit~combout [0] $end
$var wire 1 ] seconddigit~combout [3] $end
$var wire 1 ^ seconddigit~combout [2] $end
$var wire 1 _ seconddigit~combout [1] $end
$var wire 1 ` seconddigit~combout [0] $end
$var wire 1 a forthdigit~combout [3] $end
$var wire 1 b forthdigit~combout [2] $end
$var wire 1 c forthdigit~combout [1] $end
$var wire 1 d forthdigit~combout [0] $end
$var wire 1 e firstdigit~combout [3] $end
$var wire 1 f firstdigit~combout [2] $end
$var wire 1 g firstdigit~combout [1] $end
$var wire 1 h firstdigit~combout [0] $end
$upscope $end
$upscope $end
$enddefinitions $end
#0
$dumpvars
b0 !
b0 "
b0 #
b0 $
1%
1&
x'
0(
1)
x*
1+
1,
1-
0.
0/
00
01
02
03
04
05
06
17
18
19
0:
1;
0<
1=
0>
1?
0@
0A
1B
0C
0D
1E
0F
0G
1H
0I
1J
1K
1L
1M
0N
0O
1P
1Q
0R
0S
1T
1U
0V
1W
0X
0\
0[
0Z
0Y
0`
0_
0^
0]
0d
0c
0b
0a
0h
0g
0f
0e
$end
#10000
b1000 !
b1001 !
1h
1e
0'
1I
1:
14
0L
1/
0K
0M
0&
#30000
b1000 $
b1001 $
1\
1Y
1'
0I
1.
1A
0:
04
0/
07
0H
1K
#40000
b1000 "
b1001 "
1d
1a
0'
1I
0;
1D
1/
17
0K
0E
1:
1H
#60000
b1 $
b0 $
0\
0Y
1'
0I
1;
0.
0A
0:
14
0/
0J
0H
1K
1E
1L
1J
1H
1M
1&
#70000
b1 !
b0 !
0h
0e
0'
1I
0;
1:
04
0L
0=
07
0K
0E
0M
0B
0?
1L
0J
0H
1K
0L
0&
#80000
b100 #
b110 #
b111 #
b1 "
b0 "
0d
0a
1`
1_
1^
1'
1<
0D
0W
1>
17
10
0K
0:
1X
1?
15
16
05
0%
1G
06
1M
0G
0M
1&
0&
#100000
b100 $
b110 $
1[
1Z
0'
1.
12
07
00
0?
#120000
b11 #
b1 #
b0 #
0`
0_
0^
1'
1W
0I
0<
1;
0>
0X
1=
1B
1?
15
0?
1K
1E
1%
1J
1H
#140000
b1 !
b1 "
1d
1h
0'
1N
08
1X
1V
0U
0%
#150000
b11 !
b10 $
b0 $
b10 !
0[
0Z
0h
1g
1'
02
1I
0;
09
18
1?
05
1/
17
1R
0V
1U
0U
0X
1%
#160000
b11 "
b10 "
b11 !
1h
0d
1c
0'
1;
19
1O
0N
1<
1X
0%
#170000
b111 !
b101 !
b0 "
b100 !
0c
0h
0g
1f
1'
0O
0<
0I
08
0.
12
0R
0/
1L
1U
0?
15
1V
0U
0X
1X
1%
0%
#180000
b0 !
0f
0'
18
02
0V
1U
1?
05
0X
1M
1&
1%
#200000
b1000 #
b1000 $
1Y
1]
1'
0Q
1:
14
0P
1D
1S
0:
1V
0U
1X
0%
#210000
b100 "
b101 "
b111 "
1d
1c
1b
0'
1N
1I
1<
0;
1>
0L
10
0=
0B
0?
0M
1?
0K
0E
0J
0H
0&
#220000
b10 !
b11 !
b111 !
1h
1g
1f
1'
0I
1;
08
1.
12
00
1=
0V
0?
1B
1?
0X
1K
1E
1%
1L
1J
1H
1M
1&
#240000
b11 "
b1 "
0c
0b
0'
0<
0>
07
0?
15
0L
0M
0&
#250000
b0 $
0Y
1'
1Q
1:
04
0S
1R
05
0K
0E
1U
0J
0H
1X
0%
#260000
b1100 #
b100 #
1^
0]
0'
0W
1P
1>
0D
0R
1?
1K
1E
0:
1V
0U
1J
1H
0X
1%
#280000
b101 #
b101 !
b100 !
b0 !
0h
0g
0f
1`
1'
18
0.
02
1W
0P
1<
0V
1U
0=
0B
0?
1X
1R
1?
0K
0E
0U
0%
0J
0H
0X
1%
#300000
b111 #
b100 $
1Z
1_
0'
0T
12
0W
1P
0<
13
1U
0?
1X
0R
1=
17
1C
0>
1V
0U
1B
1D
15
0%
0X
1:
05
1%
#320000
b100 !
1f
1'
1@
08
02
0:
14
0V
1?
1K
1E
1X
1L
1J
1H
0%
1M
1&
#350000
b1001 "
b0 $
0Z
1a
0'
1T
0@
12
0N
1F
0D
1V
04
0?
15
0X
0J
0H
0K
1X
1K
0M
0L
1%
1L
0&
0%
#360000
b1 $
b11 #
b1011 #
b110 !
b1001 #
1g
0_
0^
1]
1\
1'
18
1.
1W
1<
03
0C
1>
1D
0T
1I
1/
0>
0D
1?
05
0K
0E
1:
0L
0?
1K
1E
0:
1H
0H
15
16
1G
1M
1&
#410000
b1110 !
b1000 "
b1100 "
b1110 "
b1001 $
b1111 !
b1011 !
b110 "
b1 #
b1001 !
0]
1Y
0d
1c
1b
0a
1h
0g
0f
1e
0'
0W
0F
1T
1A
0;
1>
02
1J
0G
0V
1U
0=
07
0/
0B
05
0M
1?
06
0K
0E
1L
1H
0&
1M
1&
#460000
b1 !
b0 !
0h
0e
1'
0I
1;
0.
0A
1:
14
0L
0J
0H
15
1K
1E
0M
1J
1H
0&
#470000
b111 "
b11 "
b1 "
b1001 "
b1001 #
b1000 !
b1001 !
1h
1e
1]
1d
0c
0b
1a
0'
1.
1A
0:
04
1W
1F
0>
1=
17
05
0K
0E
0X
0?
1B
1?
0J
0H
1%
1K
1E
1L
1J
1H
1M
1&
#520000
b1000 #
b1000 $
b0 $
b1000 "
b0 "
b0 #
b1 !
b0 !
0h
0e
0d
0a
0\
0Y
0`
0]
1'
0.
0A
0<
0F
#610000
b1 !
1h
0'
1I
08
0L
1/
1V
0U
0M
1X
0&
0%
#620000
b1 #
1`
1'
0W
0I
1L
0/
1M
1&
#630000
b1 $
1\
0'
0T
1I
0;
1.
0V
0L
1/
0X
0M
0&
1%
#645000
b1 "
1d
1'
1N
0I
1<
1;
1X
1L
0/
1M
0%
1&
#660000
b11 !
b10 !
0h
1g
0'
1I
09
18
0L
1/
1R
1V
0M
0V
1U
0X
1X
0&
1%
0%
#680000
b11 #
b10 #
0`
1_
1'
1W
0P
0I
1S
0R
1L
0/
0U
1M
0X
1&
1%
#700000
b11 $
b10 $
0\
1[
0'
1T
0Q
1I
0;
11
0.
1V
0S
0L
10
0=
12
1X
0V
1U
0M
0&
0%
#710000
b11 !
1h
1'
0I
1;
19
1L
00
07
1S
1M
15
0L
1V
0U
0M
1&
0&
#730000
b11 "
b10 "
0d
1c
0'
1O
0N
1I
0<
13
0S
1/
1=
17
1>
0V
1U
16
05
0X
06
1%
#740000
b11 #
1`
1'
1P
0I
1S
1L
0/
1V
0U
1M
1X
1&
0%
#760000
b111 !
b101 !
b100 !
0h
0g
1f
0'
1I
0;
08
01
1.
1@
02
0L
1/
0V
0@
12
1:
14
0B
0?
0M
0:
04
1B
1?
0&
#770000
b11 $
1\
1'
1Q
0I
1;
0S
1R
1L
0/
07
1U
1M
0L
0X
0M
1&
0&
1%
#800000
b111 #
b101 #
b100 #
0`
0_
1^
0'
0W
1I
1<
03
1C
0>
1X
1/
17
0C
1>
1D
0?
15
16
0D
1?
05
0K
0E
1:
0%
1G
1K
1E
0:
06
0J
0H
1M
1J
1H
0G
0M
1&
0&
#810000
b101 !
1h
1'
0I
09
18
11
0.
1L
0/
1S
0R
0U
1@
02
0=
07
1M
1V
0X
1:
14
0B
0L
1X
15
0M
1&
1%
0&
0%
#815000
b11 "
1d
0'
0O
1I
0;
0S
1R
10
17
0V
16
05
0X
06
1%
#840000
b111 $
b101 $
b100 $
0\
0[
1Z
1'
0T
0I
1;
01
12
1U
1L
00
07
02
0?
15
1X
0L
1?
0%
#860000
b111 !
b101 #
b110 !
1`
0h
1g
0'
1W
0P
0<
13
19
1.
0X
1=
1C
0>
1B
1D
05
1%
0:
#900000
b111 "
b101 "
b100 "
0d
0c
1b
1'
1N
1I
0;
03
1>
1X
1/
17
0>
0B
0?
1B
1?
0K
0E
0%
1K
1E
0J
0H
1J
1H
#910000
b101 $
b111 !
1h
1\
0'
08
11
0.
1T
0Q
12
0=
07
0/
1S
0R
15
0U
0X
1%
#920000
b111 #
b110 #
0`
1_
1'
1P
0I
1<
1;
0S
1R
1U
1X
0%
#960000
b1111 !
b1011 !
b1001 !
b1000 !
0h
0g
0f
1e
0'
1I
09
18
01
02
1A
1:
04
1S
0R
0U
0@
12
0B
0?
05
0H
0K
0E
1V
0X
0A
0:
14
1B
1?
1K
1L
1H
1X
0J
0H
15
1E
1M
0L
1%
0M
1J
1H
1&
0%
0&
#980000
b111 $
b110 $
b111 #
1`
0\
1[
1'
0W
0;
1Q
1.
0X
0S
1R
0V
1%
1X
0%
#985000
b101 "
1d
0'
1O
0N
0I
0<
1;
13
1S
0R
0X
1=
1>
1V
05
1%
1X
0%
#1010000
b1001 !
1h
1'
1I
19
0S
1R
0V
0X
1%
#1040000
b1111 #
b1011 #
b1001 #
b1000 #
0`
0_
0^
1]
0'
1W
0P
0I
03
0>
1F
0D
1X
1S
0R
0C
1>
0?
15
0J
0H
0K
1:
1V
0F
1D
1?
05
0%
1J
1H
1K
0:
#1050000
b111 $
1\
1'
0T
1I
0;
11
0.
0V
0=
1@
02
0B
1A
1:
04
0E
0H
15
1H
#1060000
b1011 !
b1010 !
0h
1g
0'
0I
1;
09
1=
17
0S
0?
1L
1V
#1070000
b111 "
b110 "
0d
1c
1'
0O
1I
1<
1S
0L
0=
07
0V
1?
#1100000
b1001 #
1`
0'
1P
0I
0S
1R
1U
0X
1%
#1110000
b1011 !
1h
1'
1I
0;
19
1.
0R
1V
0U
1X
0%
#1120000
b1111 $
b1011 $
b1001 $
b1000 $
0\
0[
0Z
1Y
0'
1T
0Q
0I
1;
01
0@
12
0:
14
0V
1U
1R
1=
17
02
1:
04
0?
05
0K
0X
0U
15
1K
1X
1L
1%
0%
#1155000
b111 "
1d
1'
1N
1I
0<
13
0X
0L
07
1C
0>
1F
0D
1B
1?
05
1%
0J
0H
1E
0:
1J
1H
#1160000
b1111 !
b1011 #
b1101 !
b1010 #
b1100 !
0`
1_
0h
0g
1f
0'
0P
0;
09
08
0.
12
0R
0=
1U
0?
15
1V
0U
1?
1X
0%
#1190000
b1001 $
1\
1'
1Q
0I
1;
1S
1=
17
0V
0?
1L
0X
1%
#1210000
b1101 !
1h
0'
1I
0;
18
1.
0L
1/
1V
16
1X
0%
#1220000
b1011 #
1`
1'
1P
0I
1<
1;
0S
1R
1L
0/
0V
06
0X
1%
#1240000
b1111 "
b1011 "
b1001 "
b1000 "
0d
0c
0b
1a
0'
1O
0N
1I
0;
03
0C
1>
1D
1S
0R
1X
0L
0=
07
0>
0D
1?
05
0K
0E
1:
1V
1L
1K
1E
0:
0J
0H
0%
0L
1J
1H
15
#1260000
b1011 $
b1111 !
b1010 $
b1110 !
0h
1g
0\
1[
1'
19
11
0.
0Q
1@
02
17
10
1:
14
0B
0?
05
16
15
06
16
#1280000
b1111 #
b1101 #
b1100 #
0`
0_
1^
0'
0W
0P
0I
0<
1;
1>
0S
1L
00
1=
1?
05
0V
1U
1M
06
15
0?
0M
1&
0&
#1310000
b1111 !
1h
1'
1I
08
0L
1/
1V
0U
16
#1325000
b1001 "
1d
0'
0O
0I
1S
1L
0/
0V
06
0X
1%
#1330000
b1011 $
1\
1'
1Q
1I
0;
1.
0S
1R
0L
1/
1U
16
1X
0%
#1340000
b1101 #
1`
0'
1W
0I
1<
1;
0X
1L
0/
06
1%
#1360000
b111 !
b11 !
b1 !
b0 !
0h
0g
0f
0e
1'
1I
18
01
0@
12
0:
04
0L
1/
0U
02
0A
1:
14
1B
1?
05
0K
0E
1X
0B
0?
15
0J
1E
1K
16
0H
0%
1G
1M
1&
#1400000
b1111 $
b1101 $
b1111 #
b1100 $
b1110 #
0`
1_
0\
0[
1Z
0'
1P
0;
0T
0Q
0.
12
0=
10
0/
1U
1B
1?
05
0B
0?
06
15
0X
0K
1K
0G
16
1%
0M
1G
1M
0&
1&
#1410000
b1011 "
b1010 "
b1 !
1h
0d
1c
1'
1;
08
1O
0<
13
1=
00
1/
1V
0U
1S
0R
1C
0>
1B
05
1X
0V
1U
1D
06
0X
0:
0%
0G
15
1%
0M
16
1G
0&
1M
1&
#1460000
b11 !
b1111 #
b10 !
1`
0h
1g
0'
0W
0;
09
18
1.
1X
0S
0U
1V
0X
0%
1X
1%
0%
#1470000
b1101 $
1\
1'
1T
0I
1;
0V
1U
1L
0/
07
06
0L
0G
0M
0&
#1495000
b1011 "
1d
0'
0O
1I
1<
1S
1/
17
1V
0U
16
1G
1M
1&
#1510000
b11 !
1h
1'
0I
19
11
0.
1L
0/
0S
1R
1@
02
0=
07
06
0V
1A
1:
04
0B
05
0L
0G
0X
1J
1H
0E
0M
0J
0H
1%
0&
#1520000
b111 #
b11 #
b1 #
b0 #
0`
0_
0^
0]
0'
1W
1I
0;
03
0C
1>
0D
1X
10
17
0>
0F
1D
1?
15
0K
0:
16
05
0?
1J
1H
1K
1:
0%
06
15
16
#1540000
b1111 $
b1110 $
0\
1[
1'
1Q
0I
1;
0R
1L
00
07
1U
06
05
0L
0X
1%
#1560000
b111 !
b101 !
b100 !
0h
0g
1f
0'
1I
0;
08
01
1.
12
1V
0U
02
1B
1?
1X
0B
0?
0K
1K
1L
0%
0L
#1580000
b1111 "
b1101 "
b1100 "
b1 #
1`
0d
0c
1b
1'
0W
0<
1O
1N
1>
0X
1=
17
1/
1R
1?
15
0?
16
0V
1U
1%
1X
0%
#1610000
b1111 $
b101 !
1h
1\
0'
09
18
11
0.
0T
1S
0R
12
0=
07
0/
0U
05
06
#1640000
b11 #
b10 #
0`
1_
1'
1W
0P
0I
1<
1;
0X
0S
1V
1%
1X
0%
#1660000
b111 !
b110 !
0h
1g
0'
1I
19
1S
0V
0X
1%
#1665000
b1101 "
1d
1'
0N
0I
1X
0%
#1680000
b111 $
b11 $
b1 $
b0 $
0\
0[
0Z
0Y
0'
1T
1I
0;
01
1.
02
0A
0:
14
1V
0@
12
1?
0J
0H
0K
1:
04
0?
1K
#1700000
b11 #
1`
1'
1P
0I
0<
1;
13
0S
1R
1=
1C
0>
0V
1B
1F
0D
1E
1H
0:
0H
15
#1710000
b111 !
1h
0'
1I
08
1U
0X
1%
#1750000
b1111 "
b1110 "
b1 $
1\
0d
1c
1'
0T
0;
11
0.
0O
1V
0U
0=
1@
02
0R
1X
0B
1:
14
05
0V
0%
#1760000
b1111 !
b111 #
b1011 !
b101 #
b1001 !
b100 #
b1000 !
0`
0_
1^
0h
0g
0f
1e
0'
0W
1<
1;
03
1>
09
18
01
0@
12
1A
0:
04
0X
0>
1R
1V
02
0A
1:
14
1J
1H
0K
0E
0V
1U
1X
0J
1K
1E
1L
1%
0L
0H
0%
#1810000
b1001 !
1h
1'
0I
19
1.
0R
1=
17
1V
0U
1B
1?
1L
0K
0L
#1820000
b11 $
b10 $
b101 #
1`
0\
1[
0'
1W
0P
1T
0Q
1S
0V
1U
1V
0U
0X
1X
1%
0%
#1835000
b1111 "
1d
1'
1N
1I
0<
13
07
1>
0B
0?
15
1K
#1860000
b1011 !
b1010 !
0h
1g
0'
0I
09
11
0.
0S
12
17
0V
1U
1B
1?
05
1L
0K
0L
#1880000
b111 #
b110 #
0`
1_
1'
1P
1I
0;
1S
0=
07
1V
0U
0B
0?
1K
#1890000
b11 $
1\
0'
1Q
0I
1;
0S
1R
1=
17
0V
1B
1?
1L
0X
0K
0L
1%
#1910000
b1011 !
1h
1'
1I
0;
19
1.
1/
0R
1U
1X
0%
#1920000
b111 "
b11 "
b1 "
b0 "
0d
0c
0b
0a
0'
0N
0I
1<
1;
03
0>
0F
1D
0X
0/
0C
1>
0?
1J
1H
1K
0:
0D
1?
1L
1%
0K
1:
1M
0L
1&
0M
0&
#1940000
b111 #
1`
1'
0W
1I
0;
1X
0=
07
0B
0?
1L
0%
1K
0L
#1960000
b111 $
b1111 !
b101 $
b1101 !
b100 $
b1100 !
0h
0g
1f
0\
0[
1Z
0'
09
08
01
0.
1@
0T
1R
0U
02
17
10
1A
0:
04
1V
0X
1?
0H
0K
0E
1X
1H
1%
0%
#2000000
b1111 #
b1011 #
b1001 #
b1000 #
0`
0_
0^
1]
1'
1W
0P
0I
0<
1;
0>
1D
1S
0R
00
1=
0?
1K
1:
0V
1U
1B
1?
1L
0X
0K
1M
0L
1&
1%
0M
0&
#2005000
b1 "
1d
0'
1N
1I
0;
1X
0=
07
0B
0?
1L
0%
1K
0L
#2010000
b1101 !
1h
1'
0I
1;
18
1=
17
0U
1B
1?
1L
0X
0K
1M
1%
0L
1&
0M
0&
#2030000
b101 $
1\
0'
1T
0Q
1I
0;
1.
1V
0S
1/
1X
0V
1U
0%
#2060000
b1111 !
b1001 #
b1110 !
1`
0h
1g
1'
1P
1<
1;
19
1R
0U
0X
1%
#2090000
b11 "
b10 "
0d
1c
0'
1O
0N
0I
1S
0R
1X
0/
1V
0%
#2100000
b111 $
b110 $
0\
1[
1'
1Q
1I
0;
11
0.
0S
1R
10
0=
12
0V
#2110000
b1111 !
1h
0'
0I
1;
08
00
07
1U
0X
1%
#2120000
b1011 #
b1010 #
0`
1_
1'
0P
1I
0<
13
1S
0R
1L
1/
1=
17
1>
0U
1M
0L
1X
0M
1&
0&
0%
#2160000
b111 !
b11 !
b1 !
b0 !
0h
0g
0f
0e
0'
0I
18
01
1.
02
0A
0:
14
0/
1V
0@
12
07
0B
0?
0J
0H
1K
1E
1:
04
1B
1?
0K
0E
1J
1H
0J
0H
#2170000
b111 $
1\
1'
0T
1I
0V
#2175000
b11 "
1d
0'
0O
0I
0S
1R
1U
0X
1%
#2180000
b1011 #
1`
1'
1P
1I
1<
0R
1/
17
1V
0U
1X
0%
#2210000
b1 !
1h
0'
0I
08
11
0.
0/
0V
1@
02
0=
07
0:
14
0B
15
05
#2240000
b1111 $
b1011 $
b1111 #
b1001 $
b1101 #
b1000 $
b1100 #
0`
0_
1^
0\
0[
0Z
1Y
1'
0W
0P
03
1C
0>
1T
0Q
01
0@
12
1A
1:
04
0X
1S
0C
1>
1F
0D
1B
1V
02
0A
0:
14
1J
1H
1K
0V
0F
1D
0B
0J
0K
1E
1:
1X
1%
0X
1J
0E
0:
15
0%
0J
0H
05
1%
#2260000
b111 "
b101 "
b11 !
b100 "
b10 !
0h
1g
0d
0c
1b
0'
09
18
1.
1N
0<
1C
0>
0S
1V
1=
1X
1F
0D
0?
0V
1U
0X
1B
1?
1H
1K
1E
1:
0%
1X
0K
0H
1%
0%
#2300000
b1101 #
1`
1'
1W
1I
0;
1/
17
#2310000
b1001 $
b11 !
1h
1\
0'
19
11
0.
1Q
1R
12
0=
07
0/
0U
0X
1%
#2345000
b101 "
1d
1'
1O
0N
0I
1<
1;
1S
0R
1X
1V
0%
#2360000
b111 !
b1111 #
b101 !
b1110 #
b100 !
0`
1_
0h
0g
1f
0'
1P
08
01
1@
02
0S
1R
0V
0@
12
1A
0:
04
0B
0?
1U
0A
1:
14
1B
1?
15
1J
1H
0E
0X
0J
05
1E
0H
1%
#2380000
b1011 $
b1010 $
0\
1[
1'
0Q
1I
0;
1.
1S
0R
0U
1X
0%
#2410000
b101 !
1h
0'
0I
1;
09
18
1=
17
0S
1V
0?
0V
1U
0X
1%
#2420000
b1111 #
1`
1'
0W
1I
0<
13
1X
07
1>
1?
0%
#2430000
b111 "
b110 "
0d
1c
0'
0O
0I
1S
1V
0U
#2450000
b1011 $
1\
1'
1Q
1I
0;
11
0.
0S
1R
0=
1@
02
0V
0B
1A
0:
04
15
0X
0E
1J
1H
05
0J
0H
1L
1%
0L
#2460000
b111 !
b110 !
0h
1g
0'
0I
1;
19
1=
17
0R
0?
1U
1X
0%
#2480000
b111 #
b11 #
b1 #
b0 #
0`
0_
0^
0]
1'
1W
1I
1<
03
0>
0F
1D
0X
0=
07
0C
1>
1B
1?
1J
1H
1K
1:
0B
0D
15
0K
1%
0:
1L
05
1M
1&
#2510000
b111 !
1h
0'
0I
08
1.
0L
1V
0U
1=
17
0M
1X
0?
0&
0%
#2515000
b111 "
1d
1'
1N
1I
0;
0=
07
1?
1L
1M
1&
#2520000
b1111 $
b1101 $
b1100 $
0\
0[
1Z
0'
0T
0Q
0I
1;
01
12
0V
1R
0L
1=
17
02
0?
0X
1V
0M
1X
0&
1%
0%
#2540000
b1 #
1`
1'
0W
1I
0<
13
0X
07
1C
0>
1L
1D
1B
1?
1%
1M
1:
1&
#2560000
b1111 !
b1011 !
b1001 !
b1000 !
0h
0g
0f
1e
0'
0I
09
18
0.
0@
12
0:
14
0L
1S
0R
0V
1U
17
1:
04
0?
15
1K
1E
0M
0U
1X
1L
05
0K
0E
0H
0L
1H
0&
0%
#2590000
b1101 $
1\
1'
1T
1I
1V
1/
0X
1%
#2600000
b1111 "
b1011 "
b1001 "
b11 #
b1000 "
b10 #
0`
1_
0d
0c
0b
1a
0'
1W
0P
1<
03
1O
0N
0C
1>
1F
0D
1X
1R
0=
07
0/
0>
0F
1D
1?
0J
0H
1K
1E
0:
0V
15
1J
0K
0E
1:
0%
1L
1H
05
1M
1&
#2610000
b1001 !
1h
1'
0I
19
1.
0L
0S
0R
1=
17
0M
1U
0?
0X
0&
1%
#2660000
b1111 $
b1011 !
b1110 $
b11 #
b1010 !
1`
0h
1g
0\
1[
0'
1P
1I
0;
09
11
0.
1Q
1S
10
0=
1@
02
1V
0U
15
0B
0:
14
1X
16
05
06
0%
#2685000
b1001 "
1d
1'
0O
0I
0<
1;
13
0S
1R
00
1=
1>
0V
#2710000
b1011 !
1h
0'
1I
19
1/
0R
1U
0X
1%
#2720000
b111 #
b101 #
b100 #
0`
0_
1^
1'
0W
0I
03
1C
0>
1X
0/
0C
1>
1F
0D
1B
1?
0F
1D
0B
0?
0J
0H
1E
1:
0%
1J
0E
0:
15
1H
05
#2730000
b1111 $
1\
0'
0T
1I
0;
1.
1V
0U
1/
#2760000
b1111 !
b1101 !
b1100 !
0h
0g
1f
1'
0I
1;
09
08
01
12
0/
07
1R
0V
02
1B
1?
1V
0X
0B
0?
1K
1E
1X
0K
0E
0H
1%
1H
0%
#2770000
b1011 "
b1010 "
0d
1c
0'
1O
1I
1<
1S
0R
1L
1/
17
0V
1U
0L
#2780000
b101 #
1`
1'
1W
0P
0I
0X
0S
0/
0U
1%
1X
0%
#2800000
b111 $
b11 $
b1 $
b0 $
0\
0[
0Z
0Y
0'
1T
1I
0;
0.
0@
12
1:
04
1V
10
0=
0A
0:
14
1B
1?
1K
0B
0?
0J
0H
1E
0K
0E
1J
1H
0J
0H
#2810000
b1101 !
1h
1'
0I
1;
18
00
07
0V
1U
0X
1%
#2840000
b111 #
b110 #
0`
1_
0'
1P
1I
0<
13
1S
1/
1=
17
1C
0>
1V
0U
1B
1F
0D
15
1X
1E
1H
1:
16
0H
1G
05
0%
1M
06
0G
1&
0M
0&
#2855000
b1011 "
1d
1'
0O
0I
0S
1R
0/
0V
#2860000
b1111 !
b1110 !
0h
1g
0'
1I
0;
19
1.
1/
0R
1U
0X
1%
#2870000
b1 $
1\
1'
0T
0I
1;
1V
0U
0/
07
1X
0%
#2900000
b111 #
1`
0'
0W
1I
1<
1/
17
#2910000
b1111 !
1h
1'
0I
08
11
0.
0/
0V
1@
02
0=
07
0X
1A
0:
04
0B
1J
1H
0E
1%
0J
0H
#2940000
b1111 "
b1101 "
b11 $
b1100 "
b10 $
0\
1[
0d
0c
1b
0'
1T
0Q
1O
1N
03
1>
1V
1S
1X
0>
1?
0X
0V
0?
0%
1X
1%
0%
#2960000
b1111 #
b111 !
b1011 #
b11 !
b1001 #
b1 !
b1000 #
b0 !
0h
0g
0f
0e
0`
0_
0^
1]
1'
18
01
1.
0@
12
0A
1:
14
1W
0P
0<
0C
1>
1D
1V
02
1=
04
1H
0X
0S
0D
1X
15
0V
1U
0:
1%
05
0%
#3010000
b11 $
b1 !
1h
1\
0'
08
11
0.
1Q
1V
0U
12
17
1S
1B
1?
0V
1K
1E
0X
1L
0H
1%
#3020000
b1001 #
1`
1'
1P
1I
0;
0S
1R
0L
0=
07
1U
0B
0?
1X
0K
0E
1H
0%
#3025000
b1101 "
1d
0'
0N
0I
1<
1;
0X
1%
#3060000
b11 !
b10 !
0h
1g
1'
1I
09
18
1S
0R
0U
1V
1X
0%
#3080000
b111 $
b101 $
b1011 #
b100 $
b1010 #
0`
1_
0\
0[
1Z
0'
0P
0;
0T
01
1.
1@
02
0S
0V
0@
12
1:
14
1?
1V
0:
04
0?
1K
1E
0K
0E
0H
1H
#3110000
b1111 "
b1110 "
b11 !
1h
0d
1c
1'
1;
19
0O
0<
13
1=
1R
1C
0>
1B
0V
1U
1D
15
0X
1:
05
1%
#3140000
b1011 #
1`
0'
1P
0I
0R
1V
0U
1X
0%
#3150000
b101 $
1\
1'
1T
0Q
1I
0;
11
0.
0V
1U
1R
0=
1@
02
0X
0U
0B
0:
14
1X
1%
0%
#3160000
b111 !
b101 !
b100 !
0h
0g
1f
0'
0I
1;
08
01
12
1=
17
1U
02
1B
1?
15
0X
05
1K
1E
1L
0H
1%
#3195000
b1111 "
1d
1'
1N
1I
1<
1X
0L
0=
07
0B
0?
0%
0K
0E
1H
#3200000
b1111 #
b1101 #
b1100 #
0`
0_
1^
0'
0W
0P
0I
03
1>
1S
0R
0>
1?
0U
0?
#3210000
b101 !
1h
1'
1I
0;
09
18
1.
0S
1V
0V
1U
0X
1X
1%
0%
#3220000
b111 $
b110 $
0\
1[
0'
1Q
0I
1;
1S
1=
17
1V
0U
1B
1?
0X
1K
1E
1L
0H
1%
#3260000
b111 !
b1101 #
b110 !
1`
0h
1g
1'
1W
0<
13
19
11
0.
1X
1>
0S
1R
12
0V
0%
0X
1%
#3280000
b111 "
b11 "
b1 "
b0 "
0d
0c
0b
0a
0'
0N
1I
0;
03
0>
0D
1X
0L
0=
07
0C
1>
0?
15
0K
1:
0B
0F
1D
05
0%
0E
1J
1H
0:
0J
0H
1L
0L
#3290000
b111 $
1\
1'
0T
0I
1;
1U
1=
17
0X
1B
1?
1K
1E
1%
1L
1J
1H
1M
1&
#3310000
b111 !
1h
0'
1I
0;
08
1.
0L
1/
1V
0U
0M
1X
0&
0%
#3320000
b1111 #
b1110 #
0`
1_
1'
1P
0I
1<
1;
0R
1L
0/
0V
1M
1&
#3360000
b1111 $
b1111 !
b1011 $
b1011 !
b1001 $
b1001 !
b1000 $
b1000 !
0h
0g
0f
1e
0\
0[
0Z
1Y
0'
09
18
01
0.
0@
1A
1T
0Q
1S
1U
02
0=
07
1:
04
0H
1V
0U
0X
0B
15
0L
0K
0E
0M
1X
1K
1H
0&
1%
0%
#3365000
b1 "
1d
1'
1N
1I
0;
10
17
16
05
06
#3380000
b1111 #
1`
0'
0W
0I
0<
1;
13
0X
1L
00
1=
1C
0>
1M
1B
1F
0D
1%
1E
0J
0H
0:
1&
1J
1H
0M
1M
0&
1&
