sections/P2/quartus/simulation/qsim/waiting_room.msim.vcd
$comment
	File created using the following command:
		vcd file waiting_room.msim.vcd -direction
$end
$date
	Sat Jul 31 01:28:27 2021
$end
$version
	ModelSim Version 10.1d
$end
$timescale
	1ps
$end
$scope module waiting_room_vlg_vec_tst $end
$var reg 1 ! CLK $end
$var reg 1 " ent $end
$var reg 1 # open $end
$var reg 1 $ out $end
$var reg 1 % reset $end
$var reg 1 & T $end
$var wire 1 ' Close $end
$var wire 1 ( enable $end
$var wire 1 ) num [3] $end
$var wire 1 * num [2] $end
$var wire 1 + num [1] $end
$var wire 1 , num [0] $end
$var wire 1 - open_door $end
$var wire 1 . Q0 $end
$var wire 1 / Q1 $end
$var wire 1 0 Q2 $end
$var wire 1 1 Q3 $end
$var wire 1 2 up $end
$var wire 1 3 sampler $end
$scope module i1 $end
$var wire 1 4 gnd $end
$var wire 1 5 vcc $end
$var wire 1 6 unknown $end
$var tri1 1 7 devclrn $end
$var tri1 1 8 devpor $end
$var tri1 1 9 devoe $end
$var wire 1 : CLK~combout $end
$var wire 1 ; CLK~clkctrl_outclk $end
$var wire 1 < out~combout $end
$var wire 1 = ent~combout $end
$var wire 1 > T~combout $end
$var wire 1 ? inst9~2_combout $end
$var wire 1 @ inst|inst7~0_combout $end
$var wire 1 A reset~combout $end
$var wire 1 B reset~clkctrl_outclk $end
$var wire 1 C inst|inst7~regout $end
$var wire 1 D inst3~combout $end
$var wire 1 E inst1~combout $end
$var wire 1 F inst|inst13~0_combout $end
$var wire 1 G inst|inst13~1_combout $end
$var wire 1 H inst|inst13~regout $end
$var wire 1 I inst|inst24~0_combout $end
$var wire 1 J inst|inst18~0_combout $end
$var wire 1 K inst|inst18~regout $end
$var wire 1 L inst4~0_combout $end
$var wire 1 M inst8~combout $end
$var wire 1 N inst|inst~0_combout $end
$var wire 1 O inst|inst~regout $end
$var wire 1 P open~combout $end
$var wire 1 Q inst9~3_combout $end
$upscope $end
$upscope $end
$enddefinitions $end
#0
$dumpvars
0!
1"
1#
0$
0%
1&
1'
1(
0,
0+
0*
0)
1-
0.
0/
00
01
12
x3
04
15
x6
17
18
19
0:
0;
0<
1=
1>
1?
0@
0A
0B
0C
0D
1E
0F
0G
0H
0I
0J
0K
0L
1M
1N
0O
1P
1Q
$end
#10000
1!
1%
1:
1A
1B
1;
03
1O
0N
1L
1@
1,
1.
0'
#20000
0!
0:
0;
13
#30000
1!
1:
1;
03
0O
1C
1N
0,
0.
1+
1/
#40000
0!
0:
0;
13
#50000
1!
1:
1;
03
1O
0N
1F
0@
1,
1.
1G
#60000
0!
0:
0;
13
#70000
1!
1:
1;
03
0O
1H
0C
1N
0F
0G
0,
0.
1*
10
0+
0/
1G
#80000
0!
0:
0;
13
#90000
1!
1:
1;
03
1O
0N
1@
1,
1.
#100000
0!
0:
0;
13
#110000
1!
1:
1;
03
0O
1C
1N
0,
0.
1+
1/
#120000
0!
0:
0;
13
#130000
1!
1:
1;
03
1O
0N
1I
1F
0@
1,
1.
1J
0G
#140000
0!
0:
0;
13
#150000
1!
1:
1;
03
0O
1K
0H
0C
1N
0I
0F
0J
1G
0,
0.
1)
11
0*
00
0+
0/
1J
0G
#160000
0!
0:
0;
13
#170000
1!
1:
1;
03
1O
0N
1@
1,
1.
#180000
0!
0:
0;
13
#190000
1!
1:
1;
03
0O
1C
1N
0,
0.
1+
1/
#200000
0#
0!
0P
0:
0;
13
0Q
0?
0E
0-
0M
0@
02
0N
1@
0(
#210000
1!
1:
1;
03
#220000
0!
0:
0;
13
#230000
1#
1!
1P
1:
1;
03
1Q
1?
1E
1-
1M
12
1N
1(
#240000
0!
0:
0;
13
#250000
1!
1:
1;
03
1O
0N
1F
0@
1,
1.
1G
#260000
0!
0:
0;
13
#270000
1!
1:
1;
03
0O
1H
0C
1N
0F
0G
0,
0.
1*
10
0+
0/
1G
#280000
0!
0:
0;
13
#290000
1!
1:
1;
03
1O
0N
1@
1,
1.
#300000
0!
0:
0;
13
#310000
1!
1:
1;
03
0O
1C
1N
0,
0.
1+
1/
#320000
0#
0!
0P
0:
0;
13
0Q
0?
0E
0-
0M
0@
02
0N
1@
0(
#330000
1!
1:
1;
03
#340000
0!
0:
0;
13
#350000
0"
1$
1!
0=
1<
1:
1;
03
1M
1N
0@
1(
#360000
0!
0:
0;
13
#370000
1!
1:
1;
03
1O
0C
0N
1,
1.
0+
0/
#380000
0!
0:
0;
13
#390000
1!
1:
1;
03
0O
1N
1F
1@
0,
0.
0G
#400000
0!
0:
0;
13
#410000
1!
1:
1;
03
1O
0H
1C
0N
0F
1G
1,
1.
0*
00
1+
1/
0G
#420000
0!
0:
0;
13
#430000
1"
1!
1=
1:
1;
03
0O
1N
0@
0,
0.
#440000
1#
0$
0!
1P
0<
0:
0;
13
1Q
0M
1?
0N
1@
1E
1-
0(
1M
12
1N
1(
#450000
1!
1:
1;
03
1O
0N
1F
0@
1,
1.
1G
#460000
0!
0:
0;
13
#470000
1!
1:
1;
03
0O
1H
0C
1N
0F
0G
0,
0.
1*
10
0+
0/
1G
#480000
0!
0:
0;
13
#490000
1!
1:
1;
03
1O
0N
1@
1,
1.
#500000
0!
0:
0;
13
#510000
1!
1:
1;
03
0O
1C
1N
0,
0.
1+
1/
#520000
0!
0:
0;
13
#530000
1!
1:
1;
03
1O
0N
1I
1F
1D
0@
1,
1.
0J
0G
0Q
0E
0M
0I
0F
1@
0-
02
1N
1J
1G
0(
#540000
0!
0:
0;
13
#550000
1!
1:
1;
03
#560000
0!
0:
0;
13
#570000
1!
1:
1;
03
#580000
0!
0:
0;
13
#590000
1!
1:
1;
03
#600000
0!
0:
0;
13
#610000
1!
1:
1;
03
#620000
0!
0:
0;
13
#630000
1!
1:
1;
03
#640000
0!
0:
0;
13
#650000
1!
1:
1;
03
#660000
0&
0!
0>
0:
0;
13
0?
#670000
1!
1:
1;
03
#680000
0!
0:
0;
13
#690000
1!
1:
1;
03
#700000
0!
0:
0;
13
#710000
1!
1:
1;
03
#720000
0"
0#
1$
0!
0=
0P
1<
0:
0;
13
1M
0N
1(
#730000
1!
1:
1;
03
0O
1N
0D
0@
0,
0.
#740000
0!
0:
0;
13
#750000
1!
1:
1;
03
1O
0C
0N
1,
1.
0+
0/
#760000
0$
0!
0<
0:
0;
13
0M
1N
0(
#770000
1!
1:
1;
03
#780000
1"
1#
0!
1=
1P
0:
0;
13
#790000
1!
1:
1;
03
#800000
0!
0:
0;
13
#810000
1!
1:
1;
03
#820000
0!
0:
0;
13
#830000
1!
1:
1;
03
#840000
0!
0:
0;
13
#850000
1!
1:
1;
03
#860000
1&
0!
1>
0:
0;
13
1Q
1?
1E
1-
1M
12
0N
1@
1(
#870000
1!
1:
1;
03
0O
1C
1N
0,
0.
1+
1/
#880000
0%
0!
0A
0:
0;
0B
13
0C
0H
0K
0L
0@
0G
0J
0+
0/
0*
00
0)
01
1'
#890000
1!
1:
1;
03
#900000
1%
0!
1A
0:
0;
1B
13
#910000
1!
1:
1;
03
1O
0N
1L
1@
1,
1.
0'
#920000
0!
0:
0;
13
#930000
1!
1:
1;
03
0O
1C
1N
0,
0.
1+
1/
#940000
0!
0:
0;
13
#950000
1!
1:
1;
03
1O
0N
1F
0@
1,
1.
1G
#960000
0!
0:
0;
13
#970000
1!
1:
1;
03
0O
1H
0C
1N
0F
0G
0,
0.
1*
10
0+
0/
1G
#980000
0!
0:
0;
13
#990000
1!
1:
1;
03
1O
0N
1@
1,
1.
#1000000
1$
0"
0#
0!
1<
0=
0P
0:
0;
13
0E
0Q
0?
0@
02
0-
#1010000
1!
1:
1;
03
0O
1N
1F
1@
0,
0.
0G
#1020000
0!
0:
0;
13
#1030000
1!
1:
1;
03
1O
0H
1C
0N
0F
1G
1,
1.
0*
00
1+
1/
0G
#1040000
0!
0:
0;
13
#1050000
1!
1:
1;
03
0O
1N
0@
0,
0.
#1060000
0!
0:
0;
13
#1070000
1!
1:
1;
03
1O
0C
0N
1,
1.
0+
0/
#1080000
0!
0:
0;
13
#1090000
1!
1:
1;
03
0O
1N
0L
1I
1F
1@
0,
0.
0M
1J
1G
1'
0N
0J
0G
0@
0(
#1100000
0!
0:
0;
13
#1110000
1!
1:
1;
03
#1120000
0!
0:
0;
13
#1130000
1!
1:
1;
03
#1140000
0!
0:
0;
13
#1150000
1!
1:
1;
03
#1160000
0!
0:
0;
13
#1170000
1!
1:
1;
03
#1180000
0!
0:
0;
13
#1190000
1!
1:
1;
03
#1200000
0!
0:
0;
13
#1210000
1!
1:
1;
03
#1220000
0!
0:
0;
13
#1230000
1!
1:
1;
03
#1240000
0!
0:
0;
13
#1250000
1!
1:
1;
03
#1260000
0!
0:
0;
13
#1270000
1!
1:
1;
03
#1280000
0!
0:
0;
13
#1290000
1!
1:
1;
03
#1300000
0!
0:
0;
13
#1310000
1!
1:
1;
03
#1320000
0!
0:
0;
13
#1330000
1!
1:
1;
03
#1340000
0!
0:
0;
13
#1350000
1!
1:
1;
03
#1360000
0!
0:
0;
13
#1370000
1!
1:
1;
03
#1380000
0!
0:
0;
13
#1390000
1!
1:
1;
03
#1400000
0!
0:
0;
13
#1410000
1!
1:
1;
03
#1420000
0!
0:
0;
13
#1430000
1!
1:
1;
03
#1440000
0!
0:
0;
13
#1450000
1!
1:
1;
03
#1460000
0!
0:
0;
13
#1470000
1!
1:
1;
03
#1480000
0!
0:
0;
13
#1490000
1!
1:
1;
03
#1500000
0!
0:
0;
13
#1510000
1!
1:
1;
03
#1520000
0!
0:
0;
13
#1530000
1!
1:
1;
03
#1540000
0!
0:
0;
13
#1550000
1!
1:
1;
03
#1560000
0!
0:
0;
13
#1570000
1!
1:
1;
03
#1580000
0!
0:
0;
13
#1590000
1!
1:
1;
03
#1600000
0!
0:
0;
13
#1610000
1!
1:
1;
03
#1620000
0!
0:
0;
13
#1630000
1!
1:
1;
03
#1640000
0!
0:
0;
13
#1650000
1!
1:
1;
03
#1660000
0!
0:
0;
13
#1670000
1!
1:
1;
03
#1680000
0!
0:
0;
13
#1690000
1!
1:
1;
03
#1700000
0!
0:
0;
13
#1710000
1!
1:
1;
03
#1720000
0!
0:
0;
13
#1730000
1!
1:
1;
03
#1740000
0!
0:
0;
13
#1750000
1!
1:
1;
03
#1760000
0!
0:
0;
13
#1770000
1!
1:
1;
03
#1780000
0!
0:
0;
13
#1790000
1!
1:
1;
03
#1800000
0!
0:
0;
13
#1810000
1!
1:
1;
03
#1820000
0!
0:
0;
13
#1830000
1!
1:
1;
03
#1840000
0!
0:
0;
13
#1850000
1!
1:
1;
03
#1860000
0!
0:
0;
13
#1870000
1!
1:
1;
03
#1880000
0!
0:
0;
13
#1890000
1!
1:
1;
03
#1900000
0!
0:
0;
13
#1910000
1!
1:
1;
03
#1920000
0!
0:
0;
13
#1930000
1!
1:
1;
03
#1940000
0!
0:
0;
13
#1950000
1!
1:
1;
03
#1960000
0!
0:
0;
13
#1970000
1!
1:
1;
03
#1980000
0!
0:
0;
13
#1990000
1!
1:
1;
03
