sections/2/quartus/simulation/qsim/waiting_room.msim.vcd
$comment
	File created using the following command:
		vcd file waiting_room.msim.vcd -direction
$end
$date
	Sat Jul 31 09:18:47 2021
$end
$version
	ModelSim Version 10.1d
$end
$timescale
	1ps
$end
$scope module counter_vlg_vec_tst $end
$var reg 1 ! CLK $end
$var reg 1 " enable $end
$var reg 1 # reset $end
$var reg 1 $ up $end
$var wire 1 % num [3] $end
$var wire 1 & num [2] $end
$var wire 1 ' num [1] $end
$var wire 1 ( num [0] $end
$var wire 1 ) Q0 $end
$var wire 1 * Q1 $end
$var wire 1 + Q2 $end
$var wire 1 , Q3 $end
$var wire 1 - sampler $end
$scope module i1 $end
$var wire 1 . gnd $end
$var wire 1 / vcc $end
$var wire 1 0 unknown $end
$var tri1 1 1 devclrn $end
$var tri1 1 2 devpor $end
$var tri1 1 3 devoe $end
$var wire 1 4 up~combout $end
$var wire 1 5 CLK~combout $end
$var wire 1 6 CLK~clkctrl_outclk $end
$var wire 1 7 enable~combout $end
$var wire 1 8 inst~0_combout $end
$var wire 1 9 reset~combout $end
$var wire 1 : reset~clkctrl_outclk $end
$var wire 1 ; inst~regout $end
$var wire 1 < inst7~0_combout $end
$var wire 1 = inst7~regout $end
$var wire 1 > inst22~0_combout $end
$var wire 1 ? inst13~0_combout $end
$var wire 1 @ inst13~regout $end
$var wire 1 A inst24~0_combout $end
$var wire 1 B inst18~0_combout $end
$var wire 1 C inst18~regout $end
$upscope $end
$upscope $end
$enddefinitions $end
#0
$dumpvars
0!
0"
0#
1$
0(
0'
0&
0%
0)
0*
0+
0,
x-
0.
1/
x0
11
12
13
14
05
06
07
08
09
0:
0;
0<
0=
0>
0?
0@
0A
0B
0C
$end
#10000
1!
15
16
0-
#20000
0!
05
06
1-
#30000
1!
15
16
0-
#40000
1"
1#
0!
17
19
05
06
1:
1-
18
#50000
1!
15
16
0-
1;
1<
08
1(
1)
#60000
0"
0#
0!
07
09
05
06
0:
1-
0<
18
0;
08
0(
0)
#70000
1!
15
16
0-
#80000
1"
1#
0!
17
19
05
06
1:
1-
18
#90000
1!
15
16
0-
1;
1<
08
1(
1)
#100000
0!
05
06
1-
#110000
1!
15
16
0-
1=
0;
18
1*
1'
0(
0)
#120000
0!
05
06
1-
#130000
1!
15
16
0-
1;
1>
0<
08
1(
1)
1?
#140000
0!
05
06
1-
#150000
1!
15
16
0-
1@
0=
0;
0?
0>
18
1+
1&
0*
0'
0(
0)
1?
#160000
0!
05
06
1-
#170000
1!
15
16
0-
1;
1<
08
1(
1)
#180000
0!
05
06
1-
#190000
1!
15
16
0-
1=
0;
18
1*
1'
0(
0)
#200000
0!
05
06
1-
#210000
1!
15
16
0-
1;
1A
1>
0<
08
1(
1)
1B
0?
#220000
0!
05
06
1-
#230000
1!
15
16
0-
1C
0@
0=
0;
0B
0A
1?
0>
18
1,
1%
0+
0&
0*
0'
0(
0)
1B
0?
#240000
0!
05
06
1-
#250000
1!
15
16
0-
1;
1<
08
1(
1)
#260000
0"
0!
07
05
06
1-
0<
18
#270000
1!
15
16
0-
#280000
0!
05
06
1-
#290000
1!
15
16
0-
#300000
0!
05
06
1-
#310000
1!
15
16
0-
#320000
0!
05
06
1-
#330000
1"
1!
17
15
16
0-
1<
08
#340000
0!
05
06
1-
#350000
1!
15
16
0-
1=
0;
18
1*
1'
0(
0)
#360000
0!
05
06
1-
#370000
1!
15
16
0-
1;
1>
0<
08
1(
1)
1?
#380000
0!
05
06
1-
#390000
1!
15
16
0-
1@
0=
0;
0?
0>
18
1+
1&
0*
0'
0(
0)
1?
#400000
0!
05
06
1-
#410000
1!
15
16
0-
1;
1<
08
1(
1)
#420000
0!
05
06
1-
#430000
1!
15
16
0-
1=
0;
18
1*
1'
0(
0)
#440000
0!
05
06
1-
#450000
0$
1!
04
15
16
0-
0<
1;
1<
08
1(
1)
#460000
0!
05
06
1-
#470000
1!
15
16
0-
0;
0<
18
0(
0)
#480000
0!
05
06
1-
#490000
1!
15
16
0-
0=
1;
08
0*
0'
1(
1)
#500000
0!
05
06
1-
#510000
1!
15
16
0-
0;
1>
1<
18
0(
0)
0?
#520000
0!
05
06
1-
#530000
1!
15
16
0-
0@
1=
1;
1?
0>
08
0+
0&
1*
1'
1(
1)
0?
#540000
0!
05
06
1-
#550000
1!
15
16
0-
0;
0<
18
0(
0)
#560000
0!
05
06
1-
#570000
1!
15
16
0-
0=
1;
08
0*
0'
1(
1)
#580000
0!
05
06
1-
#590000
1!
15
16
0-
0;
1A
1>
1<
18
0(
0)
0B
1?
#600000
0!
05
06
1-
#610000
1$
1!
14
15
16
0-
0A
0>
0<
1B
0?
0C
1@
1=
1;
0B
1A
1?
1>
08
0,
0%
1+
1&
1*
1'
1(
1)
1B
0?
#620000
0!
05
06
1-
#630000
1!
15
16
0-
1C
0@
0=
0;
0B
0A
1?
0>
18
1,
1%
0+
0&
0*
0'
0(
0)
1B
0?
#640000
0!
05
06
1-
#650000
1!
15
16
0-
1;
1<
08
1(
1)
#660000
0!
05
06
1-
#670000
1!
15
16
0-
1=
0;
18
1*
1'
0(
0)
#680000
0!
05
06
1-
#690000
1!
15
16
0-
1;
1>
0<
08
1(
1)
1?
#700000
0!
05
06
1-
#710000
0$
1!
04
15
16
0-
0>
1<
0?
1@
0=
0;
1?
1>
18
1+
1&
0*
0'
0(
0)
0?
#720000
0!
05
06
1-
#730000
1!
15
16
0-
0@
1=
1;
1?
0>
08
0+
0&
1*
1'
1(
1)
0?
#740000
0!
05
06
1-
#750000
1!
15
16
0-
0;
0<
18
0(
0)
#760000
0!
05
06
1-
#770000
1!
15
16
0-
0=
1;
08
0*
0'
1(
1)
#780000
0!
05
06
1-
#790000
1$
1!
14
15
16
0-
1<
0;
0<
18
0(
0)
#800000
0!
05
06
1-
#810000
1!
15
16
0-
1;
1<
08
1(
1)
#820000
0!
05
06
1-
#830000
1!
15
16
0-
1=
0;
18
1*
1'
0(
0)
#840000
0!
05
06
1-
#850000
1!
15
16
0-
1;
1>
0<
08
1(
1)
1?
#860000
0!
05
06
1-
#870000
0"
1!
07
15
16
0-
0>
1<
18
0?
1@
0=
0;
1?
0<
08
1+
1&
0*
0'
0(
0)
#880000
0!
05
06
1-
#890000
1!
15
16
0-
#900000
0!
05
06
1-
#910000
1!
15
16
0-
#920000
0!
05
06
1-
#930000
1!
15
16
0-
#940000
0!
05
06
1-
#950000
1!
15
16
0-
#960000
0!
05
06
1-
#970000
1!
15
16
0-
#980000
0!
05
06
1-
#990000
1!
15
16
0-
